{
  "clients": {
    "divid": {
      "version": "-dirty",
      "platforms": {
        "win": {
          "x64": {
            "download": {
              "url": "https://firebasestorage.googleapis.com/v0/b/devengage-ab576.appspot.com/o/clients%2Fagi%2Fdivi_win_64.zip?alt=media&token=b849a802-df11-4ab7-bc93-5acc33017589",
              "type": "zip",
              "sha256": "2DE7650DF39F74175DCA063419A519CE4784E638CD6AAAD2F0737CC0696F585C",
              "bin": "divi_win_64/divid.exe"
            },
            "bin": "divid.exe",
            "commands": {
              "sanity": {
                "args": [
                  "-version"
                ],
                "output": [
                  "Divi Core Daemon",
                  "-dirty"
                ]
              }
            }
          }
        }
      }
    }
  }
}
